{
  "initialPlayerLocation": "room-1",
  "rooms": [
    {
      "id": "room-1",
      "name": "Room 1",
      "content": "A featureless room, on the far side stands <a id=\"link_room-2\">a door</a>."
    },
    {
      "id": "room-2",
      "name": "Room 2",
      "content": "A strange room full of bugs.<br>You may <a id=\"link_room-1\">return</a> to the previous room.<br>There is a <a id=\"action_damage\">spiky thing</a>."
    }
  ],
  "items": [
    {
      "name": "Shiny Bug",
      "locationID": "room-1"
    },
    {
      "name": "Strange Bug",
      "locationID": "room-1"
    },
    {
      "name": "Weird Bug",
      "locationID": "room-2"
    }
  ]
}
